{
	"aseetsDescriptors" : [],
	"localResponsesDescription": [
		{
			"type": "Config",
			"filesNames": ["config"]
		},
		{
			"type": "Login",
			"filesNames": ["login_response"]
		},
		{
			"type": "UserRegister",
			"filesNames": ["user_register"]
		},
		{
			"type": "Balance",
			"filesNames": ["update_balance"]
		},
		{
			"type": "JoinRoom",
			"filesNames": ["join_room"]
		},
		{
			"type": "LeaveRoom",
			"filesNames": ["leave_room"]
		},
		{
			"type": "Spin",
			"filesNames": [
				"spin_1",
				"spin_2",
				"spin_3",
				"spin_4",
				"spin_5",
				"spin_6",
				"spin_7",
				"spin_8",
				"spin_9"
			]
		}
	]
}