%YAML 1.1
%TAG !u! tag:unity3d.com,2011:
--- !u!1045 &1
EditorBuildSettings:
  m_ObjectHideFlags: 0
  serializedVersion: 2
  m_Scenes:
  - enabled: 1
    path: Assets/Scenes/Lobby.unity
    guid: 69aa4d5173a81d042a9d04b7909cfc6f
  - enabled: 1
    path: Assets/Scenes/GameScene_1.unity
    guid: 2cda990e2423bbf4892e6590ba056729
  m_configObjects: {}
